@startuml

left to right direction

actor :User: as aUser

usecase (Learning Phase) as ucLP
usecase (Autonomous Phase) as ucAP
usecase (Plan Interruption) as ucInterr

usecase (Autonomous\nDirect\nPhase) as ucADP
usecase (Autonomous\nInverse\nPhase) as ucAIP

usecase (Execute command) as ucExec
usecase (Store command\nsequence) as ucStore

usecase (Perceive\ncommand 'stop') as ucStop

aUser -- ucLP
aUser -- ucAP
aUser -- ucInterr

ucAP <|-- ucADP
ucAP <|-- ucAIP

rectangle "Step 2" {
	usecase (Perceive\nsensor data) as ucSensor
	usecase (React to\nobstacle) as ucObstacle
	usecase (Alternative\nplan) as ucAlternative
}

ucAP ..> ucInterr : <<include>>
ucLP ..> ucStore : <<include>>
ucLP ..> ucExec : <<include>>
ucAP ..> ucExec : <<include>>
ucInterr ..> ucStop : <<include>>

ucAP ..> ucSensor :: <<include>>
ucObstacle ..> ucSensor :: <<extends>>
ucObstacle <.. ucAlternative :: <<include>>

@enduml 
